PIT	Call_vgll3	Call_six6	Combined	Sex	Family	Batch	Chamber.No	SMR.mass.mlnd	SMR.abs.mlnd	SMR.mass.q0.1	SMR.abs.q0.1	SMR.mass.q0.2	SMR.abs.q0.2	Mass	Date	Treatment	mlndSMR.resid
A00000D0900001897005948	EE	LL	ELF	F	F8	B14	CH1	192.20402613567	0.467079518979785	171.849484454925	0.417594247225467	184.519524332719	0.448382444128508	2.43	2020-09-03	Low food	0.113366830215099
A00000D0900001897005300	EE	LL	ELF	F	F8	B14	CH2	136.634429311003	0.314333783628333	131.286270333016	0.301958421765938	135.0017611054	0.31050405054242	2.3	2020-09-03	Low food	-0.0384581699878738
A00000D0900001897005329	LL	LL	LLM	M	F8	B14	CH5	166.955771864639	0.530919354529551	144.836718719084	0.460580765526686	152.205110465561	0.484012251280483	3.18	2020-09-03	Low food	0.0703032567474878
A00000D0900001897005351	EE	LL	ELM	M	F8	B14	CH6	168.0482230105	0.384835756835872	147.216842537587	0.337126569411074	151.365183763361	0.346626270818097	2.29	2020-09-03	Low food	0.0510250268403464
A00000D0900001897005711	EE	LL	ELM	M	F8	B14	CH7	143.405600857774	0.368547406800103	141.241202357163	0.362989890057908	145.748920121249	0.374574724711611	2.57	2020-09-03	Low food	-0.010084259271512
A00000D0900001897005748	EE	EE	EEM	M	F8	B14	CH9	166.420656138972	0.457663375817944	145.616139269431	0.400444382990934	153.648667710594	0.422533836204134	2.75	2020-09-03	Low food	0.059129001187982
A00000D0900001897005279	LL	LL	LLM	M	F8	B14	CH11	162.399079146044	0.436863340239334	140.934301047319	0.379113269817289	146.368210271207	0.393730485629546	2.69	2020-09-03	Low food	0.0470228838080789
A00000D0900001897005298	EE	LL	ELF	F	F8	B14	CH12	165.352786810414	0.358815547378598	146.996149854678	0.318981645184651	153.061168118141	0.332142734816365	2.17	2020-09-03	Low food	0.0403709065675478
A00000D0900001897005328	LL	EE	LEM	M	F8	B14	CH14	180.690720301127	0.554720511324458	157.584569311934	0.483784627787636	162.85190547043	0.499955349794222	3.07	2020-09-03	Low food	0.102266301936482
A00000D0900001897005499	LL	EE	LEF	F	F8	B14	CH15	151.097179995388	0.456274416893587	146.194361952547	0.441506973096693	152.086810848143	0.459302168761393	3.02	2020-09-03	Low food	0.0234435051680358
A00000D0900001897005837	EE	EE	EEM	M	F8	B14	CH16	192.072070837004	0.512934873382931	168.060107426079	0.448720486827631	175.121425232464	0.467574205370679	2.67	2020-09-03	Low food	0.119477827890961
A00000D0900001897005743	LL	LL	LLM	M	F8	B15	CH1	156.009820390466	0.468029461171398	137.474411408326	0.412423234224979	140.400267806747	0.42120080342024	3	2020-09-04	Low food	0.0369286805189347
A00000D0900001897005759	EE	LL	ELM	M	F8	B15	CH3	141.592403098807	0.273273337980697	129.33170799686	0.24961019643394	131.913588292948	0.254593225405389	1.93	2020-09-04	Low food	-0.034895898528731
A00000D0900001897005947	EE	EE	EEM	M	F8	B15	CH5	175.679638844585	0.484902983259489	151.603121303188	0.418424614796798	161.110480352146	0.444664925771923	2.76	2020-09-04	Low food	0.0829058155290882
A00000D0900001897005357	LL	EE	LEF	F	F8	B15	CH6	145.084483578909	0.384528991058375	139.66173143733	0.370103588308925	143.975824507921	0.38153593494599	2.65	2020-09-04	Low food	-0.00289640219549555
A00000D0900001897005693	EE	LL	ELM	M	F8	B15	CH7	158.556349060179	0.283815864817721	151.10636847294	0.270480399566563	160.854411692754	0.287929396930029	1.79	2020-09-04	Low food	0.00917517713419546
A00000D0900001897005857	EE	LL	ELM	M	F8	B15	CH8	128.48216431865	0.336634167022938	119.944204392666	0.314253815508784	129.336364355644	0.338861274611787	2.62	2020-09-04	Low food	-0.0564896462494358
A00000D0900001897005286	LL	LL	LLF	F	F8	B15	CH9	135.068142997225	0.286456143289442	132.948119498294	0.281850013336383	135.045841210508	0.286297183366277	2.12	2020-09-04	Low food	-0.0488885996190162
A00000D0900001897005924	EE	LL	ELM	M	F8	B15	CH11	142.852063183454	0.322845662794607	141.360104903936	0.319473837082895	143.652852488182	0.324655446623291	2.26	2020-09-05	Low food	-0.0204166862373265
A00000D0900001897005403	LL	EE	LEF	F	F8	B15	CH12	167.717294975462	0.489986209292086	145.863200670003	0.425920545956407	148.884070031673	0.434741484492486	2.92	2020-09-04	Low food	0.0667570598809638
A00000D0900001897005604	EE	LL	ELF	F	F8	B15	CH13	152.17302002324	0.452364175201943	147.602133820084	0.438378337445651	152.0743043893	0.451660684036221	2.97	2020-09-04	Low food	0.0258314934643522
A00000D0900001897005530	EE	EE	EEF	F	F8	B15	CH14	174.430359424175	0.484925221996246	157.985019411162	0.439198353963029	165.931674570299	0.461290055305432	2.78	2020-09-04	Low food	0.0802763849641258
A00000D0900001897005970	EE	EE	EEF	F	F8	B15	CH15	170.910699727889	0.516179543090261	149.651371711463	0.451947142568619	153.475368503954	0.463495612881941	3.02	2020-09-05	Low food	0.0770181752713096
A00000D0900001897005341	LL	EE	LEM	M	F8	B15	CH16	187.940193490541	0.44387394289666	151.032608684846	0.356436956496236	157.508990485909	0.371721217546745	2.36	2020-09-04	Low food	0.101960978164983
A00000D0900001897006656	LL	EE	LEM	M	F3	B16	CH1	145.030602518345	0.551205781493679	133.970221062258	0.509086840036581	136.144261036954	0.517348191940427	3.8	2020-09-08	Low food	0.0212303907301391
A00000D0900001897005661	LL	EE	LEF	F	F3	B16	CH2	153.138985555492	0.509952659248258	152.09796356683	0.506486218677543	153.417609403787	0.510880639314611	3.33	2020-09-08	Low food	0.0358922079471726
A00000D0900001897006998	LL	LL	LLF	F	F3	B16	CH3	155.363773172317	0.598165861453751	139.497626436692	0.537065861781263	144.625349056549	0.556807593867714	3.85	2020-09-08	Low food	0.0519416707551137
A00000D0900001897006383	EE	LL	ELM	M	F3	B16	CH4	158.941604187478	0.583447829316511	153.86122910828	0.564670710827386	157.90804713392	0.579522532981488	3.67	2020-09-08	Low food	0.0586913770475413
A00000D0900001897006112	LL	LL	LLM	M	F3	B16	CH5	137.83754506595	0.532376583024414	136.206198747262	0.525755927164432	138.376003827404	0.53413137477378	3.86	2020-09-08	Low food	0.000387154568707097
A00000D0900001897006634	EE	EE	EEF	F	F3	B16	CH6	138.273861784833	0.446624573565011	136.334604620141	0.440360772923055	137.349315225048	0.443638288176905	3.23	2020-09-08	Low food	-0.0105071875525574
A00000D0900001897006979	EE	LL	ELM	M	F3	B16	CH7	153.244296992324	0.487335646976766	150.0895901269	0.477284896603542	152.92489374887	0.486301162121408	3.18	2020-09-08	Low food	0.03310287875894
A00000D0900001897006683	EE	EE	EEM	M	F3	B16	CH8	186.926615126197	0.781930546172712	171.087053575792	0.70830040180378	176.62431811177	0.731224676982728	4.14	2020-09-08	Low food	0.141640577842785
A00000D0900001897006003	EE	EE	EEM	M	F3	B16	CH9	182.071261751	0.544414174342723	175.294758314378	0.52413132735999	177.572857166223	0.530942842927008	2.99	2020-09-08	Low food	0.103810066211807
A00000D0900001897005163	LL	EE	LEF	F	F3	B16	CH10	139.944948256303	0.32467862318389	136.76000798596	0.317283218527427	140.8616873257	0.326799114595625	2.32	2020-09-08	Low food	-0.027572464125314
A00000D0900001897005733	EE	EE	EEM	M	F3	B16	CH11	178.300293713092	0.492154596743083	164.192068397061	0.453170108775888	167.51539063154	0.46234247814305	2.76	2020-09-08	Low food	0.0893525052916163
A00000D0900001897006583	LL	LL	LLM	M	F3	B16	CH12	191.007676241676	0.687852415180338	165.909005484352	0.68852237276006	176.046918442434	0.730594711536102	4.15	2020-09-08	Low food	0.0850824220620354
A00000D0900001897006689	EE	EE	EEF	F	F3	B16	CH13	145.88784352834	0.461005585549554	140.567038652785	0.4441918421428	144.394638408476	0.456287057370784	3.16	2020-09-08	Low food	0.0112959292452949
A00000D0900001897006480	EE	LL	ELF	F	F3	B16	CH15	168.474204514528	0.599792677211907	165.714569687046	0.589943868085882	168.040505047718	0.598224197969877	3.56	2020-09-08	Low food	0.0818566914031227
A00000D0900001897006948	LL	EE	LEF	F	F3	B16	CH16	136.311138134362	0.447100533080707	134.163494424936	0.440056261713792	139.163694174582	0.45645691689263	3.28	2020-09-08	Low food	-0.0156811780945562
A00000D0900001897006352	LL	EE	LEF	F	F3	B17	CH1	128.913995173223	0.536287870045597	127.40422489269	0.530001575553589	129.312148835407	0.537938539155292	4.16	2020-09-09	Low food	-0.0238979829344615
A00000D0900001897005149	LL	LL	LLF	F	F3	B17	CH2	114.738719003881	0.234066878227652	112.479793593003	0.229458778929727	115.00953125455	0.234619443759282	2.04	2020-09-09	Low food	-0.122492226271082
A00000D0900001897006403	LL	LL	LLF	F	F3	B17	CH3	145.607259735926	0.586805280971991	133.3080281026	0.537231353253478	139.816172919125	0.563459176864076	4.03	2020-09-09	Low food	0.0268477043094346
A00000D0900001897006536	EE	LL	ELM	M	F3	B17	CH4	133.896896339468	0.532916569229971	131.525694031693	0.523472262246137	132.780129445646	0.528464915193671	3.98	2020-09-09	Low food	-0.0104060891377766
A00000D0900001897005722	EE	LL	ELM	M	F3	B17	CH5	122.850851701701	0.555332731388343	120.681531050374	0.54548052034769	123.318643630869	0.557400269211527	4.52	2020-09-09	Low food	-0.0391970006853419
A00000D0900001897005206	EE	LL	ELF	F	F3	B17	CH6	122.462352525311	0.323300610666821	120.278075141472	0.317534118373486	122.485792710152	0.323362492754801	2.64	2020-09-09	Low food	-0.0768316934239526
A00000D0900001897006385	LL	LL	LLM	M	F3	B17	CH7	138.155132456764	0.399366081146082	133.051882214856	0.384519939600935	136.020287596596	0.393098631154162	2.89	2020-09-09	Low food	-0.0182662605405673
A00000D0900001897006328	EE	LL	ELF	F	F3	B17	CH9	131.064871205055	0.432535941214713	127.810488526952	0.42177461213894	130.872321957031	0.431878662458202	3.3	2020-09-09	Low food	-0.032294768234455
A00000D0900001897006866	LL	LL	LLM	M	F3	B17	CH10	144.791353499144	0.357680529399285	142.835052578621	0.352802579869193	144.939933428051	0.358001635567285	2.47	2020-09-09	Low food	-0.00851957164676424
A00000D0900001897006983	EE	EE	EEM	M	F3	B17	CH11	135.349089646104	0.434633910178371	131.475998173372	0.422037954136523	132.591172864273	0.425617664894318	3.21	2020-09-09	Low food	-0.0200471003192422
A00000D0900001897006526	EE	EE	EEF	F	F3	B17	CH12	153.314943756835	0.530469705398648	130.309734381099	0.450871680958602	136.844712152606	0.473482704048015	3.46	2020-09-09	Low food	0.0389707600953867
A00000D0900001897006353	LL	EE	LEF	F	F3	B17	CH13	146.844266687412	0.345514841730887	140.341042910676	0.329801450840088	146.344841924114	0.343910378521668	2.35	2020-09-09	Low food	-0.00527386085818818
A00000D0900001897005987	EE	EE	EEM	M	F3	B17	CH14	138.631036946717	0.365985937539332	127.836807267353	0.337489171185813	130.041460407785	0.343309455476553	2.64	2020-09-09	Low food	-0.0229738197530665
A00000D0900001897005085	LL	EE	LEM	M	F3	B17	CH15	165.857012782024	0.565573799569185	164.66440865101	0.561505633499943	166.958070028267	0.569327018796391	3.41	2020-09-09	Low food	0.0721406428423145
A00000D0900001897006719	EE	EE	EEF	F	F3	B17	CH16	129.641652024169	0.435564646132589	127.279343455572	0.427658594010722	130.45464335003	0.4383276016561	3.36	2020-09-09	Low food	-0.0358759328478378
A00000D0900001897006114	LL	EE	LEM	M	F3	B18	CH1	133.829445116563	0.588891274924106	130.281470040454	0.573238468177997	134.003367482764	0.58961481692416	4.4	2020-09-10	Low food	-0.00384191790607766
A00000D0900001897005122	LL	EE	LEM	M	F3	B18	CH2	142.806483511646	0.515534420135938	139.424391472996	0.503322053217516	141.173969128341	0.509638028553312	3.61	2020-09-10	Low food	0.0109954997193244
A00000D0900001897006008	EE	LL	ELF	F	F3	B18	CH3	143.349307904849	0.659406816362307	136.129629089883	0.62619629381346	138.115521177325	0.635331397415696	4.6	2020-09-10	Low food	0.0289655723187047
A00000D0900001897005141	EE	LL	ELM	M	F3	B18	CH4	160.307705926791	0.363898492453817	143.757779197104	0.326330158777426	147.464669836501	0.334744800528857	2.27	2020-09-10	Low food	0.0299485976047287
A00000D0900001897006394	EE	EE	EEF	F	F3	B18	CH5	143.401368524629	0.466054447705044	136.873964426405	0.444840384385817	138.586935907432	0.450407541699155	3.25	2020-09-10	Low food	0.00572182863580528
A00000D0900001897006873	LL	LL	LLF	F	F3	B18	CH6	127.417206240917	0.296978851751297	125.115238628282	0.291518506003897	127.594891908104	0.297296098145882	2.33	2020-09-10	Low food	-0.0678788452586404
A00000D0900001897006412	LL	LL	LLM	M	F3	B18	CH7	149.424866224972	0.59172247025089	140.242267423914	0.5553593789987	141.874222793681	0.561821922262975	3.96	2020-09-10	Low food	0.0369012824011557
A00000D0900001897006475	EE	EE	EEF	F	F3	B18	CH8	142.795032946076	0.479791310698815	134.38471933134	0.451532656953301	140.518350822249	0.472141658762758	3.36	2020-09-10	Low food	0.00612382378475617
A00000D0900001897005100	EE	LL	ELF	F	F3	B18	CH9	139.372159950315	0.471038188616204	137.509159078955	0.464780957686869	139.639753508108	0.471982366857403	3.38	2020-09-10	Low food	-0.00405008713408485
A00000D0900001897005680	LL	EE	LEF	F	F3	B18	CH10	160.357380106963	0.242139643961514	147.593889241344	0.222866772754429	156.151182782104	0.235788286000977	1.51	2020-09-10	Low food	0.00262191562343403
A00000D0900001897006984	EE	EE	EEF	F	F3	B18	CH11	127.803006268514	0.484531595877133	125.381415898471	0.475195566255206	127.749453557914	0.484170428984495	3.79	2020-09-10	Low food	-0.0337943850116543
A00000D0900001897006420	EE	EE	EEM	M	F3	B18	CH12	150.149534269002	0.484998311697193	137.606150204641	0.444467865160991	143.999597013903	0.465118698354906	3.23	2020-09-10	Low food	0.0252904247036204
A00000D0900001897006776	LL	LL	LLF	F	F3	B18	CH14	144.652967134568	0.444147912127183	136.620194425503	0.419423996886295	139.846865175245	0.429329876088001	3.07	2020-09-10	Low food	0.00571970220102315
A00000D0900001897005677	LL	EE	LEM	M	F3	B18	CH15	137.316390553939	0.351533382390062	136.417876705932	0.349229764367186	138.419783428064	0.354354645575844	2.56	2020-09-10	Low food	-0.0291805059871961
A00000D0900001897006014	EE	LL	ELM	M	F3	B18	CH16	149.129349499039	0.38193099899772	135.260495612094	0.34626686876696	139.340246509387	0.356711031064031	2.56	2020-09-10	Low food	0.00683782995539584
A00000D0900001897007741	EE	EE	EEF	F	F4	B19	CH1	134.417645619827	0.540370699554332	132.006301327653	0.530665331337165	133.712337224036	0.537523595640625	4.02	2020-09-16	Low food	-0.008042881577213
A00000D0900001897006311	EE	LL	ELM	M	F4	B19	CH2	183.243545617692	0.692660602434876	170.848189003658	0.645806154433828	174.147553323202	0.658277751561704	3.78	2020-09-16	Low food	0.122373439665214
A00000D0900001897006210	LL	EE	LEF	F	F4	B19	CH3	156.336171431154	0.422113201904954	145.167918775112	0.391953380692802	148.427437427282	0.400754081053661	2.7	2020-09-16	Low food	0.0307446826867892
A00000D0900001897006491	LL	EE	LEM	M	F4	B19	CH4	190.407384635525	0.653097329299852	180.065050432985	0.617623122985139	187.266365362996	0.642323633195077	3.43	2020-09-16	Low food	0.132483454663401
A00000D0900001897006318	EE	LL	ELM	M	F4	B19	CH5	168.443062023928	0.648559761304063	162.552723817898	0.625827986698908	164.487004464144	0.633274967186955	3.85	2020-09-16	Low food	0.0870700475962968
A00000D0900001897006580	EE	EE	EEM	M	F4	B19	CH6	153.036758537322	0.719371713544042	149.074928309484	0.700652163054576	151.487091255396	0.711989328900361	4.7	2020-09-16	Low food	0.0588741589213978
A00000D0900001897007983	LL	EE	LEF	F	F4	B19	CH7	163.216051722532	0.563095378442736	145.491294157446	0.501944964843187	149.358766538731	0.515287744558624	3.45	2020-09-16	Low food	0.0659541719044735
A00000D0900001897007379	LL	LL	LLF	F	F4	B19	CH9	150.078730908534	0.361679147651962	149.804627727196	0.361029152822542	152.179960975802	0.366753705951683	2.41	2020-09-16	Low food	0.00533199853870826
A00000D0900001897006437	LL	LL	LLF	F	F4	B19	CH12	137.156105922067	0.392266462937111	137.300907966541	0.392680596784307	140.102029642156	0.400691804776565	2.86	2020-09-16	Low food	-0.0222273561532986
A00000D0900001897006297	LL	LL	LLM	M	F4	B19	CH13	162.474320897468	0.479299246647531	155.77604321354	0.459539327479944	159.073126207905	0.469265722313319	2.95	2020-09-16	Low food	0.0534293230011025
A00000D0900001897006191	LL	EE	LEM	M	F4	B19	CH14	181.302078814689	0.72883435683505	167.324246673995	0.672643471629459	171.114305984041	0.687879510055844	4.02	2020-09-16	Low food	0.121894162965137
A00000D0900001897007900	EE	LL	ELF	F	F4	B19	CH15	156.246868511169	0.443749712287802	153.402898493138	0.435664231720512	156.745583196959	0.445157456279362	2.84	2020-09-16	Low food	0.0339045284340847
A00000D0900001897006916	LL	LL	LLM	M	F4	B19	CH16	158.644221137098	0.548964866215678	152.229409034509	0.526713755259401	159.337097577703	0.551306357618851	3.46	2020-09-16	Low food	0.0538547237457291
A00000D0900001897007532	EE	EE	EEM	M	F4	B20	CH1	145.203383783785	0.451582523567571	130.910185222481	0.407130676041915	135.205793118384	0.420490016598175	3.11	2020-09-17	Low food	0.00817919439252563
A00000D0900001897006754	LL	LL	LLM	M	F4	B20	CH2	145.200747754457	0.435597435494529	144.665337511954	0.433996012535861	146.504724059821	0.439514172179464	3	2020-09-18	Low food	0.0057408031941258
A00000D0900001897006407	LL	LL	LLM	M	F4	B20	CH3	154.631578212302	0.50255278453734	150.417820424957	0.48885791638111	157.072501413004	0.510485629592263	3.25	2020-09-17	Low food	0.0384668553591353
A00000D0900001897006673	LL	LL	LLF	F	F4	B20	CH4	138.923454683486	0.473728560655138	138.437411287423	0.472071572490113	140.44209866763	0.478907556456619	3.41	2020-09-17	Low food	-0.00481907081981169
A00000D0900001897006757	LL	EE	LEF	F	F4	B20	CH5	153.962597834506	0.420317892088201	145.727811125989	0.39783692437395	147.32981802657	0.402210403212537	2.73	2020-09-17	Low food	0.0248390744557205
A00000D0900001897006557	LL	EE	LEM	M	F4	B20	CH6	157.546168592592	0.480515814207407	156.639716707116	0.477751135956705	157.978790267855	0.481835310316956	3.05	2020-09-17	Low food	0.0422980265271939
A00000D0900001897006222	EE	LL	ELF	F	F4	B20	CH7	163.874831690696	0.505266222615366	142.533130109697	0.439002040737868	146.070631575825	0.449897545253541	3.08	2020-09-17	Low food	0.0605190642769203
A00000D0900001897007993	LL	EE	LEF	F	F4	B20	CH8	166.341543013455	0.64706860232234	153.305897220568	0.596359940188008	156.373075666427	0.6082912643424	3.89	2020-09-17	Low food	0.0822777507721915
A00000D0900001897006569	EE	EE	EEF	F	F4	B20	CH9	173.014678400178	0.622852842240642	151.813979448838	0.546530326015818	159.636640627339	0.574691906258422	3.6	2020-09-18	Low food	0.0941411291786577
A00000D0900001897006418	EE	LL	ELF	F	F4	B20	CH10	129.964039499519	0.369136970134031	124.997627088307	0.354993260930793	125.608879955349	0.356729219073191	2.84	2020-09-18	Low food	-0.046046012826407
A00000D0900001897006831	EE	EE	EEF	F	F4	B19	CH10	152.822457853548	0.421789983675791	140.886039575465	0.388845469228284	143.440536092233	0.395895879614563	2.76	2020-09-16	Low food	0.0223472217586813
A00000D0900001897006842	EE	LL	ELM	M	F4	B20	CH11	172.079795058759	0.629812049915057	157.079221643519	0.57490995121528	162.983853537778	0.596520903948267	3.66	2020-09-17	Low food	0.0929014964624316
A00000D0900001897006851	LL	EE	LEM	M	F4	B20	CH12	160.90700940418	0.456987336359283	143.864306976537	0.408574631813365	153.524844110036	0.436010557272501	2.84	2020-09-17	Low food	0.0466706093933702
A00000D0900001897006555	EE	EE	EEM	M	F4	B20	CH13	188.789359310547	0.634500406375728	171.035399850972	0.574678943499266	177.096415631564	0.595043956522056	3.36	2020-09-17	Low food	0.127503349990254
A00000D0900001897007438	EE	EE	EEF	F	F4	B20	CH14	182.15843492797	0.761442823904504	178.856938800484	0.747622004186025	181.230303506585	0.757542668657527	4.18	2020-09-17	Low food	0.126581466854562
A00000D0900001897006046	LL	LL	LLF	F	F4	B20	CH15	171.339885685744	0.387231608979308	157.327188696777	0.355559446454717	162.14810477618	0.366454716794166	2.26	2020-09-17	Low food	0.0585591581392342
A00000D0900001897007896	EE	LL	ELM	M	F4	B20	CH16	149.557152219606	0.580299947607335	143.596869733858	0.557155854567367	147.803900212795	0.573479132825644	3.88	2020-09-17	Low food	0.0359244422557052
A00000D0900001897006051	EE	EE	EEM	M	F4	B21	CH1	145.299495956207	0.425727523151688	132.541947775488	0.388347906982181	136.917585000675	0.401168524051979	2.93	2020-09-18	Low food	0.00445045773756263
A00000D0900001897006026	EE	LL	ELF	F	F4	B21	CH2	137.533169380101	0.546023209280235	137.323513786401	0.545174349732013	139.294316923521	0.552998438186377	3.97	2020-09-18	Low food	0.00106889330691837
A00000D0900001897007889	LL	EE	LEF	F	F4	B21	CH3	124.383168252258	0.466436880945969	116.000943248639	0.435003537182398	118.901782070931	0.445881682765993	3.75	2020-09-18	Low food	-0.0464303790122878
A00000D0900001897006481	EE	LL	ELM	M	F4	B21	CH4	133.570886586699	0.535631376804584	131.045589383945	0.525492813429618	132.502703887992	0.531335842590849	4.01	2020-09-18	Low food	-0.0109547581844091
A00000D0900001897006182	LL	LL	LLF	F	F4	B21	CH5	122.622706653981	0.37523901258259	121.161233783069	0.370753375376192	121.873959029419	0.372934314630022	3.06	2020-09-18	Low food	-0.0663027656104107
A00000D0900001897006744	EE	LL	ELF	F	F4	B21	CH6	127.060191376568	0.697560450657359	121.274318739478	0.665796009879733	121.749258728485	0.668403430419382	5.49	2020-09-19	Low food	-0.0115061803695695
A00000D0900001897007468	LL	EE	LEF	F	F4	B21	CH7	128.056082987637	0.340647692763315	125.840994013564	0.33473704407608	127.878590159386	0.340157049823968	2.66	2020-09-18	Low food	-0.0569020859908835
A00000D0900001897006830	EE	LL	ELM	M	F4	B21	CH8	153.670679294213	0.41649705540187	144.784973084178	0.392367277058122	147.462739454406	0.39962402392144	2.71	2020-09-18	Low food	0.0235711818499837
A00000D0900001897007192	EE	EE	EEM	M	F4	B21	CH9	151.196721524503	0.551858039221872	139.415426058746	0.508866305114423	144.603624301623	0.527803228700923	3.65	2020-09-18	Low food	0.0365218259608784
A00000D0900001897007748	EE	EE	EEF	F	F4	B21	CH10	138.818706710707	0.478955523732194	128.773647126807	0.444269082587483	131.676928197918	0.454285402282817	3.45	2020-09-19	Low food	-0.00433260473008903
A00000D0900001897007424	LL	EE	LEM	M	F4	B21	CH11	128.862145401107	0.466495543081076	112.595217287494	0.40759468658073	118.193517171392	0.427860532160439	3.62	2020-09-18	Low food	-0.0334296980238581
A00000D0900001897006551	EE	EE	EEM	M	F4	B21	CH13	132.065705935718	0.357908630192323	128.582807802201	0.348459409143966	131.27527373256	0.355755991815237	2.71	2020-09-18	Low food	-0.0422685828911345
A00000D0900001897006426	LL	LL	LLM	M	F4	B21	CH14	134.245017278085	0.510161995443286	125.059290559624	0.475225304126571	128.167044435484	0.487034768854839	3.8	2020-09-18	Low food	-0.012375270748125
A00000D0900001897006070	LL	LL	LLF	F	F4	B21	CH15	142.43384174649	0.417331156317217	138.815599525112	0.406729706608578	141.909988553707	0.41579626646236	2.93	2020-09-18	Low food	-0.00420046169507649
A00000D0900001897006226	LL	LL	LLM	M	F4	B21	CH16	148.006948436298	0.68679487436689	133.295565315328	0.618491423063121	136.867003912273	0.635062898152946	4.64	2020-09-18	Low food	0.0434622558189542
A00000D0900001897007634	LL	LL	LLM	M	F1	B22	CH1	143.534824649018	0.488021815727559	121.2679721368	0.41231110526512	125.019009032254	0.425064630709662	3.4	2020-09-23	Low food	0.00916822784214749
A00000D0900001897007656	LL	LL	LLF	F	F1	B22	CH2	124.940905439625	0.392286129722942	122.598045646656	0.384957863330501	126.21132894132	0.396303572875745	3.14	2020-09-22	Low food	-0.0564775636158078
A00000D0900001897007837	EE	EE	EEF	F	F1	B22	CH3	143.497663849933	0.57686060867673	119.594587976387	0.480770243665077	126.26724257546	0.507594315153348	4.02	2020-09-22	Low food	0.0203362099973299
A00000D0900001897007614	LL	EE	LEM	M	F1	B22	CH4	114.167074619502	0.389394692134272	100.39388292077	0.342343140759827	102.30996158807	0.348876969015318	3.41	2020-09-22	Low food	-0.0899586122216974
A00000D0900001897007408	EE	LL	ELM	M	F1	B22	CH5	137.236063723081	0.673829072880328	120.878042724278	0.593511189776207	123.484410418707	0.60630845515585	4.91	2020-09-22	Low food	0.014431376278191
A00000D0900001897007231	LL	EE	LEF	F	F1	B22	CH6	144.545851856431	0.511735219961336	126.959170306811	0.449435462886113	131.50089658249	0.465513173902016	3.54	2020-09-22	Low food	0.0149680744123524
A00000D0900001897007963	LL	LL	LLF	F	F1	B22	CH7	141.509828597625	0.489650475550461	131.091865285257	0.453577853886991	134.141065701523	0.464128087327269	3.46	2020-09-22	Low food	0.00419635390990607
A00000D0900001897007359	EE	LL	ELF	F	F1	B22	CH8	143.245759699483	0.590193517054969	131.820418000093	0.543100122160384	134.557185066431	0.554375602473696	4.12	2020-09-22	Low food	0.0212437524583572
A00000D0900001897007450	LL	EE	LEF	F	F1	B22	CH9	136.672459953267	0.703863168759326	117.894551041559	0.607156937864029	122.847661580854	0.632665457141398	5.15	2020-09-22	Low food	0.0158588075814548
A00000D0900001897007285	LL	LL	LLM	M	F1	B22	CH10	110.57494667018	0.426883194655226	107.459067431177	0.414792000284343	108.940963559667	0.420512119340314	3.86	2020-09-22	Low food	-0.0955227318603265
A00000D0900001897007839	EE	LL	ELM	M	F1	B22	CH11	148.851909784835	0.555217623497433	128.879731264868	0.480721397617957	138.713487123944	0.51740130697231	3.73	2020-09-22	Low food	0.0312021949451629
A00000D0900001897007162	EE	EE	EEM	M	F1	B22	CH12	126.268490489168	0.593604692630484	114.635175734395	0.538785325951655	121.799522273592	0.57245775468588	4.7	2020-09-23	Low food	-0.0245818724608112
A00000D0900001897007391	EE	EE	EEF	F	F1	B22	CH13	111.059888669166	0.415363983622681	99.3767941635787	0.371669210171784	100.970083644447	0.37762811283023	3.74	2020-09-22	Low food	-0.095814630411426
A00000D0900001897007243	EE	EE	EEM	M	F1	B22	CH14	102.642182631858	0.450614301117767	98.9441053753507	0.434364622597789	99.9656223474175	0.438849082105163	4.39	2020-09-22	Low food	-0.1192371790231
A00000D0900001897007956	LL	EE	LEM	M	F1	B22	CH15	139.455892525859	0.602565037029907	126.864506676239	0.548054668841351	129.791080866418	0.560697469342927	4.32	2020-09-22	Low food	0.0128597969983711
A00000D0900001897007356	EE	LL	ELF	F	F1	B22	CH16	163.089676254205	0.755105201056971	152.127960792889	0.704352458471077	155.04164108133	0.71784279820656	4.63	2020-09-22	Low food	0.0854343295841296
A00000D0900001897007209	LL	EE	LEM	M	F1	B23	CH1	116.045647041114	0.489910165394429	113.5431103205	0.479151925552511	114.677858521011	0.483940562958665	4.22	2020-09-23	Low food	-0.0684340074659686
A00000D0900001897007671	LL	LL	LLM	M	F1	B23	CH2	113.730464987843	0.471955473118027	111.967232541421	0.464664015046896	113.521831396964	0.471115600297402	4.15	2020-09-23	Low food	-0.0785118176157113
A00000D0900001897007256	LL	EE	LEF	F	F1	B23	CH3	141.962776242538	0.610443299976037	141.174338484745	0.607049655484403	146.275089384143	0.628982884351816	4.3	2020-09-23	Low food	0.0202039084291472
A00000D0900001897007943	EE	LL	ELF	F	F1	B23	CH4	124.137107058368	0.415913010370511	121.123427680231	0.405763482728773	124.551885544247	0.417248816573226	3.35	2020-09-23	Low food	-0.0548323575814263
A00000D0900001897007417	EE	LL	ELM	M	F1	B23	CH5	122.362531890975	0.312065064242229	119.936184758549	0.305837271134301	121.635384996996	0.310170231742339	2.55	2020-09-23	Low food	-0.0794657877205643
A00000D0900001897007457	LL	LL	LLM	M	F1	B23	CH6	123.898104411309	0.398884429322168	120.872647483419	0.389209924896608	124.245456808852	0.400070370924505	3.22	2020-09-23	Low food	-0.0584649404861564
A00000D0900001897007100	LL	EE	LEM	M	F1	B23	CH7	115.252835852474	0.530163044921379	110.963100279095	0.510430261283836	112.840508345479	0.519066338389201	4.6	2020-09-23	Low food	-0.0657784079592992
A00000D0900001897007314	EE	LL	ELM	M	F1	B23	CH8	140.554730584994	0.65920168644362	115.164021940998	0.540119262903282	120.41971508689	0.564768463757513	4.69	2020-09-23	Low food	0.0217206521739391
A00000D0900001897007772	EE	EE	EEM	M	F1	B23	CH9	148.501721967431	0.634127672313244	144.727799751487	0.617987704938851	147.977980511904	0.631865976785831	4.27	2020-09-23	Low food	0.0393042527313112
A00000D0900001897007336	EE	EE	EEM	M	F1	B23	CH10	117.786536135115	0.375739827430365	117.621836410404	0.375213658149189	120.655694713969	0.384891666137562	3.19	2020-09-23	Low food	-0.0809901365351874
A00000D0900001897007163	LL	EE	LEF	F	F1	B23	CH12	158.654220089362	0.507693504285959	128.317464260421	0.410615885633348	137.398381792353	0.439674821735528	3.2	2020-09-23	Low food	0.0485757774452371
A00000D0900001897007276	LL	LL	LLF	F	F1	B23	CH14	153.74257216382	0.542711488175382	139.551631077481	0.492617257703507	144.331843331464	0.509491406960066	3.53	2020-09-23	Low food	0.0415297820636992
A00000D0900001897007845	LL	LL	LLF	F	F1	B23	CH15	107.524727527225	0.216131680212394	105.59723170822	0.212250435733521	107.147294563959	0.215366062073557	2.01	2020-09-23	Low food	-0.151677614470521
A00000D0900001897007354	EE	LL	ELF	F	F1	B23	CH16	108.737083302236	0.399069903063814	106.685477580887	0.391535702721857	108.99434616442	0.40000925042342	3.67	2020-09-23	Low food	-0.106261675840572
A00000D0900001897007108	LL	EE	LEF	F	F1	B24	CH1	122.017855656436	0.306270641967718	118.389735862959	0.297158237016028	120.701854457173	0.302961654687503	2.51	2020-09-24	Low food	-0.0818041365224154
A00000D0900001897007624	LL	LL	LLM	M	F1	B24	CH2	120.339811838045	0.41655341087923	115.880300797076	0.399787037749911	119.961482931412	0.413867116113371	3.45	2020-09-24	Low food	-0.0649570960466887
A00000D0900001897007706	EE	LL	ELF	F	F1	B24	CH3	116.087462855467	0.617610024373167	113.84207527075	0.605639840440389	114.971548945218	0.611648640388561	5.32	2020-09-24	Low food	-0.0528318310950672
A00000D0900001897006235	LL	EE	LEM	M	F1	B24	CH4	111.81676761229	0.390255355620703	99.7079242166307	0.347980655516041	103.11896551262	0.359885189639043	3.49	2020-09-24	Low food	-0.0975087422295124
A00000D0900001897007138	LL	EE	LEM	M	F1	B24	CH5	119.082368736674	0.412024995828893	114.208414532153	0.395161114281249	116.126201924659	0.40179665865932	3.46	2020-09-24	Low food	-0.0707662630633244
A00000D0900001897007051	EE	EE	EEF	F	F1	B24	CH6	115.427258632955	0.549433751092867	104.331859989336	0.496619653549237	107.019049981938	0.509410677914025	4.76	2020-09-24	Low food	-0.0628184685099129
A00000D0900001897007685	EE	EE	EEF	F	F1	B24	CH7	119.121418625799	0.449125380866071	106.51240991934	0.401551785395912	108.574873821064	0.409327274305413	3.77	2020-09-24	Low food	-0.064807439383255
A00000D0900001897007212	LL	EE	LEF	F	F1	B24	CH8	123.956151329547	0.808202319984725	117.653262651625	0.767099272488595	119.040942404843	0.776146944479578	6.52	2020-09-25	Low food	-0.0106606566996918
A00000D0900001897007904	EE	LL	ELM	M	F1	B24	CH9	121.169364939753	0.430142200284281	120.152285445082	0.426540613330039	122.337888928177	0.434299505695029	3.55	2020-09-24	Low food	-0.0615002542676628
A00000D0900001897007386	EE	LL	ELF	F	F1	B24	CH10	121.159868631693	0.758492952922152	120.057840209623	0.751562079712242	120.94469213619	0.757113772772548	6.26	2020-09-24	Low food	-0.0232971545448222
A00000D0900001897007286	EE	EE	EEM	M	F1	B24	CH11	122.886300796494	0.503833833265625	109.708723617862	0.449805766833232	113.831486574907	0.466709094957119	4.1	2020-09-25	Low food	-0.0456777885689003
A00000D0900001897007263	EE	LL	ELM	M	F1	B24	CH12	110.999849278293	0.462778970147894	109.901766466123	0.458290366163731	112.015613687865	0.467105109078399	4.17	2020-09-24	Low food	-0.0888033339057399
A00000D0900001897007808	EE	EE	EEM	M	F1	B24	CH13	114.725696673834	0.436025056967807	109.907847631445	0.417649820999492	111.950886592459	0.425413369051345	3.8	2020-09-24	Low food	-0.0805719259234741
A00000D0900001897007088	LL	LL	LLF	F	F1	B24	CH14	110.083134233258	0.366696864133299	108.504349606795	0.361319484190627	110.54907722456	0.368128427157785	3.33	2020-09-25	Low food	-0.107330456854862
A00000D0900001897007262	LL	LL	LLM	M	F1	B24	CH15	126.896880140258	0.432715393148036	123.089808427679	0.419736246738384	126.599821012815	0.4317053896537	3.41	2020-09-24	Low food	-0.0441462947531394
A00000D0900001897007329	LL	LL	LLF	F	F1	B24	CH16	114.605918506649	0.334649282039416	115.261020797166	0.336562180727726	120.642095018241	0.352274917453264	2.92	2020-09-24	Low food	-0.0988368994606196
A00000D0900001897005142	EE	LL	ELM	M	F3	C3	CH5	162.518301645664	0.731332357405486	154.244093172698	0.69409841927714	157.455182109842	0.708548319494288	4.5	2020-09-05	High food	0.0819917170446842
A00000D0900001897005155	LL	EE	LEF	F	F3	C3	CH11	148.437188120213	0.571559911192931	143.835791170374	0.55376779600594	146.387056108145	0.563590166016359	3.85	2020-09-05	High food	0.032181807504785
A00000D0900001897005263	LL	LL	LLF	F	F8	C2	CH12	130.326950817893	0.575956283254533	128.0150049015	0.565826321664629	131.53714801675	0.581394194234034	4.42	2020-08-31	High food	-0.0151516157036476
A00000D0900001897005288	LL	EE	LEF	F	F8	C1	CH1	158.060987062563	0.538987965883339	129.627709134971	0.442030488150253	137.051195974911	0.467344578274445	3.41	2020-08-30	High food	0.0512304291472305
A00000D0900001897005491	LL	EE	LEM	M	F3	C4	CH11	155.685866066145	0.660132380418852	143.780493227152	0.609629291283125	147.579337541783	0.625736391177158	4.24	2020-09-06	High food	0.0593456662044103
A00000D0900001897005667	LL	LL	LLM	M	F3	C3	CH8	130.319929863416	0.518673320856396	127.724656462469	0.508344132720627	129.764566223338	0.516462973568883	3.98	2020-09-05	High food	-0.0221714028576183
A00000D0900001897005669	LL	EE	LEF	F	F3	C4	CH15	157.328578592613	0.706414097750474	150.555128550447	0.675992527191509	152.072668930193	0.682806283496569	4.49	2020-09-06	High food	0.0677526000416909
A00000D0900001897005729	LL	LL	LLM	M	F3	C4	CH2	128.904084357361	0.614972139509281	126.805769126061	0.604863518731311	128.42008899779	0.612563824519459	4.77	2020-09-06	High food	-0.0146484207536729
A00000D0900001897005739	LL	EE	LEM	M	F3	C3	CH7	138.219782577708	0.616493979530511	135.479118163341	0.604236867008501	136.83927571248	0.610303169677663	4.46	2020-09-05	High food	0.0110819778286973
A00000D0900001897005755	LL	EE	LEF	F	F8	C1	CH7	153.069927002353	0.520437751808001	135.96586230352	0.462283931831967	139.425696156875	0.474047366933374	3.4	2020-08-30	High food	0.0370977835475952
A00000D0900001897005758	LL	LL	LLF	F	F8	C2	CH13	129.290480552162	0.575101076390911	128.574717695197	0.572157493743627	131.95333850991	0.587192356369097	4.45	2020-08-31	High food	-0.0182790378817038
A00000D0900001897005802	LL	EE	LEM	M	F3	C3	CH4	139.426465330995	0.567590759041182	135.448380010686	0.551274906643491	139.966770424233	0.56966475562663	4.07	2020-09-05	High food	0.00876494688094739
A00000D0900001897005852	LL	LL	LLM	M	F8	C2	CH1	146.122822266116	0.698467090432034	138.503453391171	0.662046507209797	140.157303825049	0.669951912283733	4.78	2020-08-31	High food	0.0398736399799601
A00000D0900001897005860	LL	LL	LLM	M	F8	C2	CH8	147.45301870059	0.787399119861149	132.807569260149	0.709192419849194	135.853313649064	0.725456694886004	5.34	2020-08-31	High food	0.0512718963319577
A00000D0900001897005867	LL	LL	LLF	F	F8	C2	CH5	139.833801360509	0.504794970240854	136.759267498283	0.493700955668802	139.982245178373	0.505335905093927	3.61	2020-08-31	High food	0.00185285201885944
A00000D0900001897005869	LL	EE	LEF	F	F8	C2	CH15	151.772405046034	0.698153063211754	138.464551534464	0.636936937058533	141.974435629615	0.653082403896228	4.6	2020-08-31	High food	0.0537627880053606
A00000D0900001897005893	LL	LL	LLM	M	F8	C2	CH2	146.858961849185	0.524286493801589	138.008937160109	0.492691905661588	141.424748255737	0.504886351272982	3.57	2020-08-31	High food	0.0223949361672073
A00000D0900001897005894	LL	LL	LLM	M	F8	C1	CH5	140.482008837907	0.394873137742043	135.589955613382	0.381007775273602	140.975040459491	0.396139863691169	2.81	2020-08-30	High food	-0.0128792942060652
A00000D0900001897005956	LL	LL	LLF	F	F8	C1	CH12	133.712280412908	0.542871119463432	134.930852220212	0.547819260014062	141.714735963457	0.575361828011637	4.06	2020-08-30	High food	-0.0096709663755883
A00000D0900001897005992	EE	LL	ELM	M	F3	C4	CH1	150.26440496218	0.414736305388133	139.662833523303	0.385469420524315	142.300852822221	0.392750353789331	2.76	2020-09-06	High food	0.0150230140129838
A00000D0900001897006058	EE	EE	EEM	M	F4	C5	CH15	139.59627146937	0.657639597667879	135.70920051727	0.639190334436341	137.361033889812	0.646970469621015	4.71	2020-09-14	High food	0.0191288776800546
A00000D0900001897006060	EE	LL	ELM	M	F4	C6	CH4	148.324327475166	0.665976230363493	139.333131959696	0.625605762499033	142.278840800746	0.638831995195351	4.49	2020-09-15	High food	0.0421519711271302
A00000D0900001897006069	EE	EE	EEF	F	F4	C5	CH1	142.132891296402	0.639633231579045	136.904679206772	0.616071056430475	139.781792286203	0.629018065287914	4.5	2020-09-14	High food	0.0238079471165544
A00000D0900001897006072	EE	LL	ELF	F	F4	C5	CH5	145.836185181109	0.630073215505877	137.34540558507	0.593332152127502	138.240346113827	0.597198295211735	4.32	2020-09-14	High food	0.0322468863357663
A00000D0900001897006183	LL	LL	LLM	M	F4	C5	CH3	151.325789607473	0.510001405364121	136.59527052781	0.460326061678721	139.041848713501	0.468571030164497	3.37	2020-09-14	High food	0.0315523773924787
A00000D0900001897006190	LL	EE	LEF	F	F4	C5	CH4	148.212587084336	0.819612479603422	143.398106829815	0.792991530768877	144.816820210135	0.800837015762048	5.53	2020-09-14	High food	0.0558567597825863
A00000D0900001897006233	EE	LL	ELF	F	F4	C5	CH9	160.595028526004	0.753190683786957	145.969940625233	0.684599021532344	149.72944568115	0.702231100244595	4.69	2020-09-14	High food	0.0796072820135089
A00000D0900001897006252	LL	EE	LEM	M	F4	C6	CH15	142.641251456174	0.734602444999294	128.268398374203	0.660582251627146	131.262364873733	0.676001179099727	5.15	2020-09-15	High food	0.034422936716862
A00000D0900001897006272	LL	EE	LEF	F	F4	C6	CH1	135.986723913088	0.659566287044694	130.135853714462	0.631158890515143	131.565107982557	0.6380907737154	4.85	2020-09-15	High food	0.00965160946975929
A00000D0900001897006277	LL	LL	LLF	F	F3	C3	CH12	161.904799143596	0.535960125862989	155.016368398074	0.513104179397624	157.401660786283	0.520999497202597	3.31	2020-09-05	High food	0.0597052744672291
A00000D0900001897006285	LL	EE	LEM	M	F4	C5	CH13	125.247494082718	0.642513722941958	123.688349558652	0.634521233235883	125.502773782178	0.643829229502571	5.13	2020-09-15	High food	-0.0223192679400352
A00000D0900001897006323	EE	LL	ELF	F	F3	C4	CH4	141.612138153058	0.549455096033864	126.937042530348	0.492515725017751	131.770483906904	0.511269477558788	3.88	2020-09-06	High food	0.0122041165937218
A00000D0900001897006341	EE	LL	ELM	M	F3	C4	CH14	140.431353824816	0.661471272757447	136.894779114789	0.644774409630655	138.557686203752	0.652606702019672	4.71	2020-09-06	High food	0.0216519105280141
A00000D0900001897006350	EE	EE	EEM	M	F3	C4	CH13	136.67198260998	0.835162081001481	134.956629567087	0.824585006654904	136.145797790625	0.83185082450072	6.11	2020-09-06	High food	0.0274214421957202
A00000D0900001897006397	EE	EE	EEM	M	F3	C4	CH5	139.380017717607	0.616059678311823	136.775373549626	0.604547151089347	138.342844556601	0.611475372940175	4.42	2020-09-06	High food	0.014081648567041
A00000D0900001897006461	EE	LL	ELF	F	F3	C3	CH3	155.187791085694	0.488841541919935	150.582470358899	0.474334781630531	151.804703879273	0.47818481721971	3.15	2020-09-05	High food	0.0379208690301156
A00000D0900001897006470	LL	LL	LLF	F	F3	C4	CH9	158.509469828682	0.386763106381985	148.418202021441	0.362140412932316	150.435543095845	0.367062725153861	2.44	2020-09-06	High food	0.0299141315012246
A00000D0900001897006478	EE	EE	EEM	M	F3	C4	CH6	152.988021637661	0.569130434582984	143.779807387229	0.534860883480493	147.427546423778	0.548430472696456	3.72	2020-09-06	High food	0.0429358182967086
A00000D0900001897006505	EE	LL	ELM	M	F4	C6	CH8	130.118540759708	0.595942916679463	121.283234779121	0.555477215288372	123.185763685887	0.564190797681363	4.58	2020-09-15	High food	-0.013384358224801
A00000D0900001897006539	EE	EE	EEM	M	F3	C3	CH15	139.187177684853	0.715415139052996	137.596420053286	0.707245599073889	139.815925573948	0.718653857450091	5.14	2020-09-05	High food	0.0236418773916871
A00000D0900001897006559	LL	EE	LEF	F	F4	C5	CH6	144.092141063056	0.621037127981773	125.409971823614	0.540516978559778	130.932866129025	0.564320653016097	4.31	2020-09-14	High food	0.0268237997158381
A00000D0900001897006562	LL	LL	LLF	F	F4	C5	CH8	139.553478636607	0.711750029124872	133.264554913542	0.679649230059065	134.321390782859	0.685039092992583	5.1	2020-09-14	High food	0.024277924139935
A00000D0900001897006579	LL	EE	LEM	M	F4	C5	CH10	142.621451561026	0.713137469157767	130.948582013954	0.654742910069769	133.915260801726	0.669576304008631	5	2020-09-15	High food	0.032389925008078
A00000D0900001897006657	LL	LL	LLF	F	F3	C3	CH1	140.967462003511	0.404590519833565	132.357981030284	0.379867405556914	134.977767396194	0.387386192427076	2.87	2020-09-05	High food	-0.0100735782510854
A00000D0900001897006667	EE	EE	EEM	M	F4	C5	CH14	130.412644086772	0.487953808815728	129.561650538233	0.484560573012992	132.354028797457	0.495004067702488	3.74	2020-09-14	High food	-0.0258647540762015
A00000D0900001897006696	EE	EE	EEF	F	F3	C3	CH14	132.954497890519	0.740654445553683	130.650826718502	0.727725104822057	131.281147027119	0.731235988941052	5.57	2020-09-05	High food	0.00921925705403831
A00000D0900001897006703	LL	LL	LLF	F	F3	C4	CH16	147.494498785075	0.615058623567764	144.427702743172	0.602263520439029	146.437983425239	0.610646390883246	4.17	2020-09-06	High food	0.0347395628115432
A00000D0900001897006710	LL	LL	LLM	M	F3	C3	CH13	128.29418267921	0.492658714167153	127.250094113282	0.488640361395004	128.623884934053	0.493915718146763	3.84	2020-09-05	High food	-0.0313794707241862
A00000D0900001897006739	EE	LL	ELF	F	F1	C8	CH10	123.047476642036	0.621412212116892	117.829742855476	0.595040201420156	119.764667071547	0.604811568711312	5.05	2020-09-26	High food	-0.0310546521288389
A00000D0900001897006766	EE	EE	EEF	F	F3	C3	CH6	159.932509026779	0.601346233940689	143.186276565137	0.538380399884916	144.420094699205	0.543019556069012	3.76	2020-09-05	High food	0.0629241479936915
A00000D0900001897006788	LL	LL	LLF	F	F3	C4	CH8	147.490999025219	0.606188005993649	135.824351101479	0.558238083027078	138.493499050721	0.569208281098465	4.11	2020-09-06	High food	0.0337483538029005
A00000D0900001897006789	EE	EE	EEM	M	F3	C3	CH16	141.659594381901	0.610552851785992	133.679163318037	0.576157193900738	136.831627863988	0.589744316093787	4.31	2020-09-05	High food	0.0194294990697321
A00000D0900001897006798	EE	EE	EEF	F	F3	C4	CH10	172.264399161255	0.494408494053144	170.29216119797	0.488738502638173	171.746393793193	0.492912150186463	2.87	2020-09-06	High food	0.0769966427952607
A00000D0900001897006799	LL	EE	LEF	F	F3	C3	CH9	127.312906157203	0.417693658507955	124.501412459634	0.408364632867598	126.273041856964	0.414175577290841	3.28	2020-09-05	High food	-0.0452284839881035
A00000D0900001897006834	LL	EE	LEF	F	F4	C6	CH11	120.445142560546	0.829811887588373	119.632065053386	0.82426492821783	121.050649792746	0.834038977072018	6.89	2020-09-15	High food	-0.0194545958467051
A00000D0900001897006846	EE	LL	ELF	F	F4	C6	CH9	158.713688523811	0.669771765570483	133.710824781206	0.564259680576688	137.268439503126	0.579272814703192	4.22	2020-09-15	High food	0.0673763773634704
A00000D0900001897006902	LL	LL	LLM	M	F4	C6	CH12	121.830621630051	0.402041051379167	120.612999963801	0.398022899880544	122.832687683686	0.405347869356164	3.3	2020-09-15	High food	-0.0640465688311807
A00000D0900001897006920	LL	LL	LLM	M	F4	C5	CH2	132.927501994828	0.65134475977466	127.228253126473	0.623418440319717	128.470658007456	0.629506224236534	4.9	2020-09-14	High food	0.000440634679037765
A00000D0900001897006955	LL	EE	LEF	F	F3	C4	CH3	158.669428642291	0.398260265892151	149.427586007664	0.375063240879236	151.106751721351	0.37927794682059	2.51	2020-09-06	High food	0.0322574739835055
A00000D0900001897006959	EE	LL	ELF	F	F3	C4	CH12	148.811407571272	0.427088739729549	141.379461327699	0.405759054010496	142.477342202692	0.408909972121727	2.87	2020-09-06	High food	0.0134288406966438
A00000D0900001897007000	EE	EE	EEF	F	F3	C4	CH7	145.895913105749	0.49606758973571	144.437386721612	0.491087114853482	146.423195284474	0.497838863967213	3.4	2020-09-06	High food	0.0162698450225834
A00000D0900001897007035	LL	LL	LLM	M	F1	C8	CH7	129.147572077246	0.44039322078341	119.930681839601	0.408963625073039	123.914267396699	0.422547651822744	3.41	2020-09-26	High food	-0.0365080145323768
A00000D0900001897007067	EE	LL	ELM	M	F1	C7	CH13	121.514309583866	0.444742373076949	111.883762692315	0.409494571453873	116.428094671003	0.42612682649587	3.66	2020-09-25	High food	-0.0582009600130841
A00000D0900001897007075	LL	EE	LEF	F	F1	C8	CH16	128.240429137522	0.459106692779681	115.868201378079	0.414808160933524	121.225419042103	0.433987000170729	3.58	2020-09-26	High food	-0.0362864968084865
A00000D0900001897007085	LL	EE	LEF	F	F1	C7	CH9	119.438190576773	0.531499948066642	112.293603822422	0.499706537009777	114.123040680705	0.507847531029135	4.45	2020-09-25	High food	-0.0525199919057109
A00000D0900001897007094	LL	LL	LLF	F	F4	C6	CH16	140.079336237182	0.515523815349183	129.906102903968	0.478054458686601	131.824304098782	0.485113439083518	3.68	2020-09-15	High food	0.00393962358600134
A00000D0900001897007102	LL	LL	LLM	M	F1	C7	CH16	121.85845241437	0.482579297663331	115.159606683427	0.456032042466372	116.244143930742	0.460326809965737	3.96	2020-09-25	High food	-0.0516480921983195
A00000D0900001897007149	LL	EE	LEM	M	F4	C6	CH2	134.892508520628	0.644833474229959	127.587390355859	0.609867725901008	129.127839695426	0.617231073744137	4.78	2020-09-15	High food	0.00517526586624481
A00000D0900001897007154	EE	EE	EEM	M	F4	C6	CH14	130.579405770713	0.481854072677302	121.535568630483	0.448466248246481	125.445094896712	0.462892400168867	3.69	2020-09-16	High food	-0.0263893237612777
A00000D0900001897007194	EE	LL	ELM	M	F4	C5	CH16	149.276012297711	0.540430678197644	138.588134958532	0.501689048549887	140.197175308036	0.507513774615092	3.62	2020-09-14	High food	0.030462797440895
A00000D0900001897007208	EE	LL	ELM	M	F1	C7	CH10	128.235343805898	0.361625112746569	122.512050825643	0.345483983328313	123.301910252407	0.347711386911787	2.82	2020-09-25	High food	-0.052381796553518
A00000D0900001897007227	LL	LL	LLM	M	F1	C7	CH12	115.857029897128	0.408975315536861	111.032765101973	0.391945660809964	112.378995550747	0.396697854294135	3.53	2020-09-25	High food	-0.0813421366555499
A00000D0900001897007294	EE	EE	EEM	M	F1	C7	CH8	102.087842605648	0.43796105040996	99.1817900083489	0.425489879135817	100.718618592704	0.432082873762701	4.29	2020-09-25	High food	-0.123151607749066
A00000D0900001897007300	EE	EE	EEF	F	F1	C8	CH5	113.460158840932	0.433429090973618	107.81552905418	0.411855320986969	108.851588737631	0.415813068977749	3.82	2020-09-26	High food	-0.0850914787294776
A00000D0900001897007303	EE	LL	ELM	M	F1	C7	CH15	108.45418855808	0.369895077371555	106.629987467817	0.363608257265255	108.444580740221	0.369796020324152	3.41	2020-09-25	High food	-0.112270087861361
A00000D0900001897007373	EE	EE	EEF	F	F4	C5	CH11	130.543308373593	0.503934830439778	127.338153345101	0.491525271912091	130.941241420805	0.505433191884306	3.86	2020-09-14	High food	-0.0234574133875445
A00000D0900001897007376	EE	LL	ELF	F	F4	C6	CH10	155.168594914165	0.640846296995503	144.957303547833	0.598673663652551	150.353197091896	0.620958703989532	4.13	2020-09-15	High food	0.0561136617490062
A00000D0900001897007394	EE	LL	ELF	F	F1	C8	CH15	142.016502328401	0.74700680224739	127.622065551264	0.671292064799647	131.140247892031	0.689797703912082	5.26	2020-09-26	High food	0.0339402455322004
A00000D0900001897007405	LL	EE	LEF	F	F1	C8	CH12	117.113471794529	0.487192042665242	104.904970733048	0.43640467824948	108.686704469888	0.452136690594733	4.16	2020-09-26	High food	-0.0655957706510286
A00000D0900001897007419	EE	EE	EEM	M	F1	C7	CH14	116.703536704405	0.451642687046046	111.684003366358	0.432217093027804	113.428118733931	0.438966819500315	3.87	2020-09-25	High food	-0.0719861819240797
A00000D0900001897007420	LL	EE	LEM	M	F1	C7	CH1	110.67343753132	0.419452328243702	105.731325919547	0.400721725235083	106.582930796228	0.403949307717704	3.79	2020-09-25	High food	-0.0964338779142181
A00000D0900001897007422	EE	EE	EEM	M	F4	C6	CH13	129.771298603555	0.526871472330434	128.115553209108	0.520149146028976	129.920001678258	0.527475206813729	4.06	2020-09-15	High food	-0.0226630201864576
A00000D0900001897007433	LL	LL	LLM	M	F4	C6	CH7	138.015563313518	0.582441897084477	129.251869140508	0.545442887772944	132.375101308112	0.558622927520233	4.22	2020-09-15	High food	0.00670214933876106
A00000D0900001897007435	LL	LL	LLF	F	F4	C5	CH7	139.726464149392	0.528166034484703	129.436345207537	0.489269384884489	133.436027030961	0.504388182177033	3.78	2020-09-14	High food	0.00462342237130157
A00000D0900001897007466	EE	EE	EEM	M	F4	C6	CH5	129.881292629381	0.539007364411933	125.121334917691	0.519253539908419	126.247017354673	0.523925122021891	4.15	2020-09-15	High food	-0.0208181454901744
A00000D0900001897007488	EE	EE	EEF	F	F1	C7	CH6	117.499160549484	0.549896071371584	111.631684042675	0.522436281319719	113.713704952688	0.532180139178582	4.68	2020-09-25	High food	-0.0562338320404576
A00000D0900001897007491	EE	LL	ELF	F	F1	C8	CH14	120.2762658604	0.454670843196765	118.129790298787	0.446530607329413	119.277295162753	0.450868175715208	3.78	2020-09-26	High food	-0.0604499416367435
A00000D0900001897007529	EE	LL	ELM	M	F4	C5	CH12	148.000820314063	0.66156366680386	133.631686056484	0.597333636672482	139.895026076408	0.625330766561543	4.47	2020-09-14	High food	0.040902984761235
A00000D0900001897007547	EE	LL	ELM	M	F1	C8	CH3	130.121333121726	0.512678052499599	119.221342146021	0.469732088055322	122.636561403866	0.483188051931231	3.94	2020-09-26	High food	-0.0235141603394187
A00000D0900001897007575	LL	LL	LLM	M	F1	C8	CH8	120.696781245617	0.541928547792821	111.393026585051	0.50015468936688	114.509130045523	0.514145993904399	4.49	2020-09-26	High food	-0.0473647282891275
A00000D0900001897007623	EE	EE	EEF	F	F1	C8	CH11	128.05149040911	0.420008888541882	122.886044884112	0.403066227219886	126.158090042731	0.413798535340158	3.28	2020-09-26	High food	-0.0428278844154356
A00000D0900001897007631	EE	EE	EEF	F	F1	C7	CH7	118.890879436341	0.378072996607564	110.220587853674	0.350501469374683	112.189675051949	0.356763166665197	3.18	2020-09-25	High food	-0.07714964144844
A00000D0900001897007667	LL	EE	LEF	F	F1	C8	CH4	105.422531994111	0.476519601580049	103.281258230088	0.466831287199998	105.083735828836	0.474978485946337	4.52	2020-09-26	High food	-0.105669502293096
A00000D0900001897007672	EE	EE	EEM	M	F1	C7	CH3	120.776026494509	0.344211675509351	114.915938657462	0.327510425173766	117.080617521049	0.333679759934988	2.85	2020-09-25	High food	-0.0776977072600982
A00000D0900001897007674	LL	LL	LLF	F	F1	C8	CH2	126.192250147851	0.618342025724469	120.154968991057	0.588759348056178	121.113092084632	0.593454151214699	4.9	2020-09-26	High food	-0.022141524409656
A00000D0900001897007676	LL	LL	LLF	F	F1	C7	CH5	106.17518901092	0.470356087318378	96.9729692756303	0.429590253891042	99.364894637616	0.440186483244639	4.43	2020-09-25	High food	-0.103943594815429
A00000D0900001897007803	LL	LL	LLF	F	F1	C8	CH6	121.660325469215	0.444067347841344	116.502863039151	0.425235450092901	117.969077476963	0.430587132790914	3.65	2020-09-26	High food	-0.0578567067950649
A00000D0900001897007851	EE	LL	ELF	F	F1	C7	CH2	127.381803879602	0.529908304139146	119.546451435248	0.497313237970633	122.471397886154	0.509481015206402	4.16	2020-09-25	High food	-0.029095231625505
A00000D0900001897007880	EE	LL	ELM	M	F1	C8	CH1	117.26934324754	0.457371327194061	108.92272961848	0.424798645512071	111.913484943779	0.436462591280736	3.9	2020-09-26	High food	-0.0693457036359198
A00000D0900001897007884	LL	LL	LLF	F	F4	C6	CH6	138.328598182836	0.799569666782851	122.084037916224	0.705645739155774	124.587220257175	0.72011413308647	5.78	2020-09-15	High food	0.0288802429887445
A00000D0900001897007966	EE	EE	EEF	F	F1	C7	CH4	118.086201166174	0.469983080641372	110.601450149303	0.440193771594228	111.865892046598	0.445226250345459	3.98	2020-09-25	High food	-0.0649830888542632
A00000D0900001897007968	LL	EE	LEF	F	F1	C8	CH9	115.080872069058	0.477595198252545	108.158271525142	0.448856826829341	110.353253154157	0.457966000589751	4.15	2020-09-26	High food	-0.0733528927044511
A00000D0900001897007980	LL	EE	LEM	M	F1	C7	CH11	120.441969921064	0.414326001994932	108.394846891607	0.37287827330713	112.10975448015	0.385657555411717	3.44	2020-09-25	High food	-0.0662204831580297
A00000D0900001897007982	EE	EE	EEM	M	F4	C6	CH3	132.567586211363	0.668138597042542	131.851996913921	0.664534064446164	133.028847693616	0.670465392375823	5.04	2020-09-15	High food	0.00115944535153402
